%YAML 1.1
%TAG !u! tag:unity3d.com,2011:
--- !u!1 &111190
GameObject:
  m_ObjectHideFlags: 0
  m_PrefabParentObject: {fileID: 0}
  m_PrefabInternal: {fileID: 100100000}
  serializedVersion: 4
  m_Component:
  - 4: {fileID: 408682}
  - 212: {fileID: 21219660}
  - 61: {fileID: 6144760}
  - 50: {fileID: 5037332}
  - 114: {fileID: 11456772}
  - 114: {fileID: 11473074}
  m_Layer: 9
  m_Name: functionBlock
  m_TagString: grabbable
  m_Icon: {fileID: 0}
  m_NavMeshLayer: 0
  m_StaticEditorFlags: 0
  m_IsActive: 1
--- !u!4 &408682
Transform:
  m_ObjectHideFlags: 1
  m_PrefabParentObject: {fileID: 0}
  m_PrefabInternal: {fileID: 100100000}
  m_GameObject: {fileID: 111190}
  m_LocalRotation: {x: 0, y: 0, z: 0, w: 1}
  m_LocalPosition: {x: 162.6317, y: -28.53972, z: 0}
  m_LocalScale: {x: 1, y: 1, z: 1}
  m_Children: []
  m_Father: {fileID: 0}
  m_RootOrder: 0
--- !u!50 &5037332
Rigidbody2D:
  serializedVersion: 2
  m_ObjectHideFlags: 1
  m_PrefabParentObject: {fileID: 0}
  m_PrefabInternal: {fileID: 100100000}
  m_GameObject: {fileID: 111190}
  m_UseAutoMass: 0
  m_Mass: 6
  m_LinearDrag: 0
  m_AngularDrag: 0.05
  m_GravityScale: 1
  m_IsKinematic: 0
  m_Interpolate: 0
  m_SleepingMode: 1
  m_CollisionDetection: 0
  m_Constraints: 4
--- !u!61 &6144760
BoxCollider2D:
  m_ObjectHideFlags: 1
  m_PrefabParentObject: {fileID: 0}
  m_PrefabInternal: {fileID: 100100000}
  m_GameObject: {fileID: 111190}
  m_Enabled: 1
  m_Density: 1
  m_Material: {fileID: 0}
  m_IsTrigger: 0
  m_UsedByEffector: 0
  m_Offset: {x: 0.014246533, y: -0.0038872447}
  serializedVersion: 2
  m_Size: {x: 0.5424474, y: 0.5304007}
--- !u!114 &11456772
MonoBehaviour:
  m_ObjectHideFlags: 1
  m_PrefabParentObject: {fileID: 0}
  m_PrefabInternal: {fileID: 100100000}
  m_GameObject: {fileID: 111190}
  m_Enabled: 1
  m_EditorHideFlags: 0
  m_Script: {fileID: 11500000, guid: 1af074fd6a3f09e4793babe5eebfaef3, type: 3}
  m_Name: 
  m_EditorClassIdentifier: 
  function: []
  method: 
  blockExist: 0
--- !u!114 &11473074
MonoBehaviour:
  m_ObjectHideFlags: 1
  m_PrefabParentObject: {fileID: 0}
  m_PrefabInternal: {fileID: 100100000}
  m_GameObject: {fileID: 111190}
  m_Enabled: 1
  m_EditorHideFlags: 0
  m_Script: {fileID: 11500000, guid: 91fef86a01b71a14a8e0c2825868eae0, type: 3}
  m_Name: 
  m_EditorClassIdentifier: 
  destroyTimer: 60
  beingHeld: 0
  particleEffect: {fileID: 19803452, guid: 7630c58af63af2849a7c7623c0c9ab7b, type: 2}
--- !u!212 &21219660
SpriteRenderer:
  m_ObjectHideFlags: 1
  m_PrefabParentObject: {fileID: 0}
  m_PrefabInternal: {fileID: 100100000}
  m_GameObject: {fileID: 111190}
  m_Enabled: 1
  m_CastShadows: 0
  m_ReceiveShadows: 0
  m_Materials:
  - {fileID: 2100000, guid: 5f1c8ebf20e4799459538c2271b8c2bb, type: 2}
  m_SubsetIndices: 
  m_StaticBatchRoot: {fileID: 0}
  m_UseLightProbes: 0
  m_ReflectionProbeUsage: 0
  m_ProbeAnchor: {fileID: 0}
  m_ScaleInLightmap: 1
  m_PreserveUVs: 0
  m_IgnoreNormalsForChartDetection: 0
  m_ImportantGI: 0
  m_MinimumChartSize: 4
  m_AutoUVMaxDistance: 0.5
  m_AutoUVMaxAngle: 89
  m_LightmapParameters: {fileID: 0}
  m_SortingLayerID: 0
  m_SortingOrder: 3
  m_Sprite: {fileID: 21300000, guid: 0d2a9f2acca5d244fb39b2b2578c00c2, type: 3}
  m_Color: {r: 1, g: 0.9019608, b: 0, a: 1}
  m_FlipX: 0
  m_FlipY: 0
--- !u!1001 &100100000
Prefab:
  m_ObjectHideFlags: 1
  serializedVersion: 2
  m_Modification:
    m_TransformParent: {fileID: 0}
    m_Modifications:
    - target: {fileID: 0}
      propertyPath: m_Sprite
      value: 
      objectReference: {fileID: 21300000, guid: 0d2a9f2acca5d244fb39b2b2578c00c2,
        type: 3}
    - target: {fileID: 0}
      propertyPath: m_Mass
      value: 6
      objectReference: {fileID: 0}
    - target: {fileID: 0}
      propertyPath: destroyTimer
      value: 60
      objectReference: {fileID: 0}
    - target: {fileID: 0}
      propertyPath: particleEffect
      value: 
      objectReference: {fileID: 19803452, guid: 7630c58af63af2849a7c7623c0c9ab7b,
        type: 2}
    m_RemovedComponents: []
  m_ParentPrefab: {fileID: 0}
  m_RootGameObject: {fileID: 111190}
  m_IsPrefabParent: 1
